<?xml version="1.0" encoding="UTF-8"?>
<svg width="38px" height="38px" viewBox="0 0 38 38" version="1.1" xmlns="http://www.w3.org/2000/svg" xmlns:xlink="http://www.w3.org/1999/xlink">
    <!-- Generator: sketchtool 43.1 (39012) - http://www.bohemiancoding.com/sketch -->
    <title>631C5F48-0DF1-4EB0-9AC2-0BBB26DCDC19</title>
    <desc>Created with sketchtool.</desc>
    <defs></defs>
    <g id="sample" stroke="none" stroke-width="1" fill="none" fill-rule="evenodd">
        <g id="Home-screen" transform="translate(-491.000000, -194.000000)">
            <g id="baseline-shopping_cart-24px" transform="translate(490.000000, 191.000000)">
                <path d="M12.8333333,33 C10.8166667,33 9.185,34.65 9.185,36.6666667 C9.185,38.6833333 10.8166667,40.3333333 12.8333333,40.3333333 C14.85,40.3333333 16.5,38.6833333 16.5,36.6666667 C16.5,34.65 14.85,33 12.8333333,33 Z M1.83333333,3.66666667 L1.83333333,7.33333333 L5.5,7.33333333 L12.1,21.2483333 L9.625,25.74 C9.33166667,26.2533333 9.16666667,26.8583333 9.16666667,27.5 C9.16666667,29.5166667 10.8166667,31.1666667 12.8333333,31.1666667 L34.8333333,31.1666667 L34.8333333,27.5 L13.6033333,27.5 C13.3466667,27.5 13.145,27.2983333 13.145,27.0416667 L13.2,26.8216667 L14.85,23.8333333 L28.5083333,23.8333333 C29.8833333,23.8333333 31.0933333,23.0816667 31.7166667,21.945 L38.28,10.0466667 C38.4266667,9.79 38.5,9.47833333 38.5,9.16666667 C38.5,8.15833333 37.675,7.33333333 36.6666667,7.33333333 L9.55166667,7.33333333 L7.82833333,3.66666667 L1.83333333,3.66666667 Z M31.1666667,33 C29.15,33 27.5183333,34.65 27.5183333,36.6666667 C27.5183333,38.6833333 29.15,40.3333333 31.1666667,40.3333333 C33.1833333,40.3333333 34.8333333,38.6833333 34.8333333,36.6666667 C34.8333333,34.65 33.1833333,33 31.1666667,33 Z" id="Shape" fill="#4990E2" fill-rule="nonzero"></path>
                <polygon id="Shape" points="0 0 44 0 44 44 0 44"></polygon>
            </g>
        </g>
    </g>
</svg>