<?xml version="1.0" encoding="UTF-8"?>
<svg width="40px" height="42px" viewBox="0 0 40 42" version="1.1" xmlns="http://www.w3.org/2000/svg" xmlns:xlink="http://www.w3.org/1999/xlink">
    <!-- Generator: sketchtool 43.1 (39012) - http://www.bohemiancoding.com/sketch -->
    <title>56E3B6D0-7F04-4D4F-91AE-63E0CD473466</title>
    <desc>Created with sketchtool.</desc>
    <defs></defs>
    <g id="sample" stroke="none" stroke-width="1" fill="none" fill-rule="evenodd">
        <g id="Home-screen" transform="translate(-808.000000, -192.000000)">
            <g id="Group" transform="translate(808.000000, 192.000000)">
                <path d="M36,24 L36.4933795,24 C38.4300325,24 40,25.5709366 40,27.5 C40,29.4329966 38.4306335,31 36.4933795,31 L36,31 L36,40.0067126 C36,41.1075748 35.1101074,42 34.0002927,42 L1.99970728,42 C0.895299444,42 0,41.1002873 0,40.0067126 L0,14.9932874 C0,13.8924252 0.889892578,13 1.99970728,13 L34.0002927,13 C35.1047006,13 36,13.8997127 36,14.9932874 L36,24 Z M22,27.5 C22,28.8903379 23.1230528,30 24.5084085,30 L36.4915915,30 C37.8845825,30 39,28.8807119 39,27.5 C39,26.1096621 37.8769472,25 36.4915915,25 L24.5084085,25 C23.1154175,25 22,26.1192881 22,27.5 Z" id="Combined-Shape" fill="#4990E2"></path>
                <ellipse id="Oval-4" fill="#4990E2" cx="24.5" cy="27.5" rx="1.5" ry="1.5"></ellipse>
                <path d="M1.06148377,15.4730843 C1.06148377,15.4730843 0.714372956,11 1.66964998,11 C2.11126621,11 3.80016316,11 5.48874767,11 C5.60222754,11 6.67913609,11 6.7760835,11 C8.22806805,11 7.77045784,11 7.77045784,11 C9.00179997,11 10,11.9927224 10,13.2365422 L10,15.4730843" id="Path-2" stroke="#4990E2"></path>
                <path d="M23.0843235,15.4730843 C23.0843235,15.4730843 22.6082695,11 23.9184087,11 C24.5240746,11 26.8403557,11 29.1562083,11 C29.3118432,11 30.7887971,11 30.9217581,11 C32.9131196,11 33.10555,11 33.10555,11 C34.3414148,11 35.3432812,11.9927224 35.3432812,13.2365422 L35.3432812,15.4730843" id="Path-2" stroke="#4990E2"></path>
                <path d="M5,13.7880946 L19.2779899,-1.75148784e-12 L29.7267339,10.8199911 L26.6531728,13.7880946 L15.8265864,13.7880946 L24.5023619,5.40999557 L22.7609046,3.60666371 L12.2177243,13.7880946 L5,13.7880946 Z" id="Combined-Shape" fill="#4990E2"></path>
            </g>
        </g>
    </g>
</svg>